INDEX VERSION 1.127+C:\Users\TATY\projetos\workspace\.metadata\.plugins\org.eclipse.jdt.core
1133964937.index
3150109421.index
3604818565.index
3620173291.index
1642629014.index
71698844.index
4247270281.index
2689061861.index
3425653186.index
2142348700.index
2921179834.index
2951508521.index
2410559617.index
4133831525.index
4135478709.index
4282262597.index
4097853004.index
322690031.index
1984797805.index
1256513231.index
